%YAML 1.1
%TAG !u! tag:unity3d.com,2011:
--- !u!1045 &1
EditorBuildSettings:
  m_ObjectHideFlags: 0
  serializedVersion: 2
  m_Scenes:
  - enabled: 1
    path: Assets/Scenes/TitleScreen.unity
    guid: 84ee44424521ea44fa0df002a2c446bb
  - enabled: 1
    path: Assets/Scenes/MaisonMamie.unity
    guid: 27cfaf7dd94b26d42b48d003295846a2
  - enabled: 1
    path: Assets/Scenes/OutOfHouse.unity
    guid: 46cf8ca3261ce774eb5557f3e9ccfc31
  - enabled: 1
    path: Assets/Scenes/Ecole.unity
    guid: c67f50e862ad131469e047b000949339
  - enabled: 1
    path: Assets/Scenes/RueDeux.unity
    guid: d8336d7e251472840ba9c06ebd75846a
  m_configObjects: {}
